{
    "linked": {
        "assets": [
            {
                "attachment": {
                    "optimized": {
                        "metadata": null,
                        "url": "https://abc123.cloudfront.net/uploads/asset/attachment/92/ello-optimized-97fbdf62.jpg"
                    },
                    "original": {
                        "url": "https://abc123.cloudfront.net/uploads/asset/attachment/92/archer.jpg"
                    }
                },
                "id": "92"
            }
        ],
        "posts": [
            {
                "author_id": "42",
                "comments_count": 0,
                "content": [
                    {
                        "data": "<p>Hello, I am a post with awesome content!</p>",
                        "kind": "text"
                    }
                ],
                "content_warning": null,
                "created_at": "2014-06-03T00:00:00.000Z",
                "href": "/api/v2/posts/479",
                "id": "479",
                "is_adult_content": true,
                "links": {
                    "assets": [],
                    "author": {
                        "href": "/api/v2/users/42",
                        "id": "42",
                        "type": "users"
                    }
                },
                "loved": false,
                "loves_count": 0,
                "reposted": false,
                "reposts_count": 0,
                "summary": [
                    {
                        "data": "<p>Hello, I am a post with awesome content!</p>",
                        "kind": "text"
                    }
                ],
                "token": "fPdDC8s5icw6ZbAV7mwP-g",
                "views_count": 0
            },
            {
                "author_id": "42",
                "comments_count": 0,
                "content": [
                    {
                        "data": "<p>Hello, I am a post with awesome content!</p>",
                        "kind": "text"
                    },
                    {
                        "data": {
                            "alt": "archer.jpg",
                            "url": "https://abc123.cloudfront.net/uploads/asset/attachment/92/archer.jpg"
                        },
                        "kind": "image",
                        "links": {
                            "assets": "92"
                        }
                    }
                ],
                "content_warning": null,
                "created_at": "2014-06-02T00:00:00.000Z",
                "href": "/api/v2/posts/478",
                "id": "478",
                "is_adult_content": true,
                "links": {
                    "assets": [
                        "92"
                    ]
                },
                "loved": false,
                "loves_count": 0,
                "reposted": false,
                "reposts_count": 0,
                "summary": [
                    {
                        "data": "<p>Hello, I am a post with awesome content!</p>",
                        "kind": "text"
                    },
                    {
                        "data": {
                            "alt": "archer.jpg",
                            "url": "https://abc123.cloudfront.net/uploads/asset/attachment/92/archer.jpg"
                        },
                        "kind": "image",
                        "links": {
                            "assets": "92"
                        }
                    }
                ],
                "token": "MeAcGGzWOsFKVMunS9r9cQ",
                "views_count": 0
            }
        ],
        "users": [
            {
                "avatar": {
                    "large": {
                        "metadata": null,
                        "url": "https://abc123.cloudfront.net/uploads/user/avatar/42/ello-large-97fbdf62.png"
                    },
                    "original": {
                        "url": "https://abc123.cloudfront.net/uploads/user/avatar/42/archer.jpg"
                    },
                    "regular": {
                        "metadata": null,
                        "url": "https://abc123.cloudfront.net/uploads/user/avatar/42/ello-regular-97fbdf62.png"
                    },
                    "small": {
                        "metadata": null,
                        "url": "https://abc123.cloudfront.net/uploads/user/avatar/42/ello-small-97fbdf62.png"
                    }
                },
                "experimental_features": false,
                "has_commenting_enabled": true,
                "has_loves_enabled": true,
                "has_reposting_enabled": true,
                "has_sharing_enabled": true,
                "href": "/api/v2/users/42",
                "id": "42",
                "name": "Sterling",
                "posts_adult_content": true,
                "relationship_priority": "self",
                "username": "archer",
                "views_adult_content": true
            }
        ]
    },
    "users": {
        "allows_analytics": true,
        "avatar": {
            "large": {
                "metadata": null,
                "url": "https://abc123.cloudfront.net/uploads/user/avatar/42/ello-large-97fbdf62.png"
            },
            "original": {
                "url": "https://abc123.cloudfront.net/uploads/user/avatar/42/archer.jpg"
            },
            "regular": {
                "metadata": null,
                "url": "https://abc123.cloudfront.net/uploads/user/avatar/42/ello-regular-97fbdf62.png"
            },
            "small": {
                "metadata": null,
                "url": "https://abc123.cloudfront.net/uploads/user/avatar/42/ello-small-97fbdf62.png"
            }
        },
        "background_position": "50% 100%",
        "confirmed_at": "2016-01-22T21:44:41.653Z",
        "cover_image": {
            "optimized": {
                "metadata": null,
                "url": "https://abc123.cloudfront.net/uploads/user/cover_image/42/ello-optimized-41d0e299.jpg"
            },
            "original": {
                "url": "https://abc123.cloudfront.net/uploads/user/cover_image/42/cover.png"
            }
        },
        "created_at": "2016-01-22T21:44:41.690Z",
        "discoverable": true,
        "email": "sterling@isisagency.com",
        "experimental_features": false,
        "external_links_list": [
            {
                "text": "example.com",
                "url": "http://example.com"
            },
            {
                "text": "test.com",
                "url": "http://test.com"
            }
        ],
        "followers_count": 0,
        "following_count": 0,
        "formatted_short_bio": "<p>Have been <strong>spying</strong> for a while now.</p>",
        "ga_unique_id": "eb62f1c48ff87127c3120e4b5eee7a78a00cb42c",
        "has_ad_notifications_enabled": false,
        "has_commenting_enabled": true,
        "has_loves_enabled": true,
        "has_reposting_enabled": true,
        "has_sharing_enabled": true,
        "href": "/api/v2/profile",
        "id": "42",
        "is_public": false,
        "links": {
            "most_recent_post": {
                "href": "/api/v2/posts/479",
                "id": "479",
                "type": "posts"
            },
            "posts": {
                "ids": [
                    "479",
                    "478"
                ],
                "pagination": {
                    "last": "http://ello.co/api/v2/profile/posts?after=true&per_page=2",
                    "next": "http://ello.co/api/v2/profile/posts?before=2014-06-02T00%3A00%3A00.000000000%2B0000&per_page=2",
                    "total_count": "3",
                    "total_pages": "2",
                    "total_pages_remaining": "1"
                }
            }
        },
        "loves_count": 0,
        "name": "Sterling",
        "notify_of_comments_via_email": true,
        "notify_of_comments_via_push": true,
        "notify_of_invitation_acceptances_via_email": true,
        "notify_of_invitation_acceptances_via_push": true,
        "notify_of_loves_via_email": true,
        "notify_of_loves_via_push": true,
        "notify_of_mentions_via_email": true,
        "notify_of_mentions_via_push": true,
        "notify_of_new_followers_via_email": true,
        "notify_of_new_followers_via_push": true,
        "notify_of_reposts_via_email": true,
        "notify_of_reposts_via_push": true,
        "posts_adult_content": true,
        "posts_count": 3,
        "relationship_priority": "self",
        "short_bio": "Have been **spying** for a while now.",
        "subscribe_to_daily_ello": true,
        "subscribe_to_onboarding_drip": true,
        "subscribe_to_users_email_list": true,
        "subscribe_to_weekly_ello": true,
        "username": "archer",
        "views_adult_content": true,
        "web_onboarding_version": "1"
    }
}
