{
    "linked": {
        "assets": [
            {
                "attachment": {
                    "optimized": {
                        "metadata": null,
                        "url": "https://abc123.cloudfront.net/uploads/asset/attachment/28/ello-optimized-97fbdf62.jpg"
                    },
                    "original": {
                        "url": "https://abc123.cloudfront.net/uploads/asset/attachment/28/archer.jpg"
                    }
                },
                "id": "28"
            }
        ],
        "posts": [
            {
                "author_id": "420",
                "comments_count": 0,
                "content": [
                    {
                        "data": "<p>Hello, I am a post with awesome content!</p>",
                        "kind": "text"
                    },
                    {
                        "data": {
                            "alt": "archer.jpg",
                            "url": "https://abc123.cloudfront.net/uploads/asset/attachment/28/archer.jpg"
                        },
                        "kind": "image",
                        "links": {
                            "assets": "28"
                        }
                    }
                ],
                "content_warning": "NSFW.",
                "created_at": "2014-06-06T00:00:00.000Z",
                "href": "/api/edge/posts/301",
                "id": "301",
                "links": {
                    "assets": [
                        "28"
                    ]
                },
                "reposts_count": 0,
                "summary": [
                    {
                        "data": "<p>Hello, I am a post with awesome content!</p>",
                        "kind": "text"
                    },
                    {
                        "data": {
                            "alt": "archer.jpg",
                            "url": "https://abc123.cloudfront.net/uploads/asset/attachment/28/archer.jpg"
                        },
                        "kind": "image",
                        "links": {
                            "assets": "28"
                        }
                    }
                ],
                "token": "Hqn-9YX4G442EMW_pL_hlg",
                "views_count": 0
            },
            {
                "author_id": "420",
                "comments_count": 0,
                "content": [
                    {
                        "data": "<p>Hello, I am a post with awesome content!</p>",
                        "kind": "text"
                    }
                ],
                "content_warning": "NSFW.",
                "created_at": "2014-06-05T00:00:00.000Z",
                "href": "/api/edge/posts/300",
                "id": "300",
                "links": {
                    "assets": []
                },
                "reposts_count": 0,
                "summary": [
                    {
                        "data": "<p>Hello, I am a post with awesome content!</p>",
                        "kind": "text"
                    }
                ],
                "token": "buHyhnxlU1oieL-Rjuv2HA",
                "views_count": 0
            }
        ]
    },
    "users": {
        "avatar": {
            "large": {
                "metadata": null,
                "url": "https://abc123.cloudfront.net/uploads/user/avatar/420/ello-large-pixellated-91c0f710.png"
            },
            "original": {
                "url": "https://abc123.cloudfront.net/uploads/user/avatar/420/pam.jpg"
            },
            "regular": {
                "metadata": null,
                "url": "https://abc123.cloudfront.net/uploads/user/avatar/420/ello-regular-pixellated-91c0f710.png"
            },
            "small": {
                "metadata": null,
                "url": "https://abc123.cloudfront.net/uploads/user/avatar/420/ello-small-pixellated-91c0f710.png"
            }
        },
        "background_position": null,
        "cover_image": {
            "optimized": {
                "metadata": null,
                "url": "https://abc123.cloudfront.net/uploads/user/cover_image/420/ello-optimized-pixellated-41d0e299.jpg"
            },
            "original": {
                "url": "https://abc123.cloudfront.net/uploads/user/cover_image/420/cover.png"
            }
        },
        "experimental_features": true,
        "external_links": "http://isis.com http://ello.co",
        "followers_count": 0,
        "following_count": 0,
        "formatted_short_bio": "<p>Have been spying for a while now.</p>",
        "has_commenting_enabled": true,
        "has_reposting_enabled": true,
        "has_sharing_enabled": true,
        "href": "/api/edge/users/420",
        "id": "420",
        "links": {
            "posts": {
                "ids": [
                    "301",
                    "300"
                ],
                "pagination": {
                    "last": "http://ello.co/api/edge/users/420/posts?after=true",
                    "next": "http://ello.co/api/edge/users/420/posts?before=2014-06-05T00%3A00%3A00.000000000%2B0000",
                    "total_count": "3",
                    "total_pages": "2",
                    "total_pages_remaining": "1"
                }
            }
        },
        "name": "Pamilanderson",
        "posts_adult_content": true,
        "posts_count": 3,
        "relationship_priority": null,
        "username": "pam",
        "views_adult_content": false
    }
}
